How To Make Mistakes In R
…
tidy(elo_regression)

##          term     estimate    std.error statistic p.value
## 1 (Intercept) -46.91730071 0.4854565302 -96.64573       0
## 2       elo_i   0.03137786 0.0003237596  96.91715       0

This is especially useful if you’re testing a lot of regression models. Let’s group each NBA franchise (using fran_id) and run a regression the same regression as before.

To do this for each franchise, we’ll use the helpful do() function. First, though, we’ll run the regression using lm() and store the regression outputs in a dataframe using tidy(). What results is a clean dataframe for all 53 franchises in NBA history. One clarifying note: the . used to specify the dataset for lm() to use refers to the dataframe being piped (%>%) to it, or new_elo_data.

new_elo_data %>% 
  group_by(fran_id) %>% 
  do(tidy(lm(formula = pts_margin ~ elo_i, data = .)))

## Source: local data frame [106 x 6]
## Groups: fran_id [53]
## 
##      fran_id        term     estimate    std.error   statistic
##        <chr>       <chr>        <dbl>        <dbl>       <dbl>
## 1  Baltimore (Intercept) -63.58332224 13.161953246  -4.8308424
## 2  Baltimore       elo_i   0.04307166  0.009449932   4.5578808
## 3    Bombers (Intercept)  59.43686404 26.951049832   2.2053636
## 4    Bombers       elo_i  -0.04325854  0.019260027  -2.2460271
## 5      Bucks (Intercept) -53.85436245  2.926199735 -18.4041991
## 6      Bucks       elo_i   0.03618180  0.001929639  18.7505475
## 7      Bulls (Intercept) -51.98972815  2.306071267 -22.5447188
## 8      Bulls       elo_i   0.03482617  0.001515665  22.9774815
## 9   Capitols (Intercept)  21.71334358 25.122186049   0.8643095
## 10  Capitols       elo_i  -0.01347413  0.017132549  -0.7864641
## # ... with 96 more rows, and 1 more variables: p.value <dbl>
…
